{
  "AL": {
    "stateAbbrev": "AL",
    "stateName": "Alabama",
    "inPersonRegPolicies": [
      {
        "kind": "InPersonRegDeadline",
        "isoDate": "2020-10-19"
      }
    ],
    "mailRegPolicies": [
      {
        "kind": "MailRegPostmarkedDeadline",
        "isoDate": "2020-10-19"
      }
    ],
    "onlineRegPolicies": [
      {
        "kind": "OnlineRegDeadline",
        "isoDate": "2020-10-19"
      }
    ],
    "registrationLinkEn": "https://www.alabamainteractive.org/sos/voter_registration/voterRegistrationWelcome.action",
    "moreInfoLinkEn": "https://www.sos.alabama.gov/alabama-votes/voter/register-to-vote"
  },
  "AK": {
    "stateAbbrev": "AK",
    "stateName": "Alaska",
    "inPersonRegPolicies": [
      {
        "kind": "InPersonRegDeadline",
        "isoDate": "2020-10-04"
      }
    ],
    "mailRegPolicies": [
      {
        "kind": "MailRegPostmarkedDeadline",
        "isoDate": "2020-10-04"
      }
    ],
    "onlineRegPolicies": [
      {
        "kind": "OnlineRegDeadline",
        "isoDate": "2020-10-04"
      }
    ],
    "registrationLinkEn": "https://voterregistration.alaska.gov/",
    "moreInfoLinkEn": "https://www.elections.alaska.gov/Core/voterregistration.php"
  },
  "AZ": {
    "stateAbbrev": "AZ",
    "stateName": "Arizona",
    "inPersonRegPolicies": [
      {
        "kind": "InPersonRegDeadline",
        "isoDate": "2020-10-23"
      }
    ],
    "mailRegPolicies": [
      {
        "kind": "MailRegReceivedDeadline",
        "isoDate": "2020-10-23"
      }
    ],
    "onlineRegPolicies": [
      {
        "kind": "OnlineRegDeadline",
        "isoDate": "2020-10-23"
      }
    ],
    "registrationLinkEn": "https://servicearizona.com/VoterRegistration/selectLanguage",
    "moreInfoLinkEn": "https://azsos.gov/elections/voting-election/register-vote-or-update-your-current-voter-information"
  },
  "AR": {
    "stateAbbrev": "AR",
    "stateName": "Arkansas",
    "inPersonRegPolicies": [
      {
        "kind": "InPersonRegDeadline",
        "isoDate": "2020-10-05"
      }
    ],
    "mailRegPolicies": [
      {
        "kind": "MailRegPostmarkedDeadline",
        "isoDate": "2020-10-05"
      }
    ],
    "onlineRegPolicies": [
      {
        "kind": "OnlineRegNotAvailable"
      }
    ],
    "registrationLinkEn": null,
    "moreInfoLinkEn": "https://www.sos.arkansas.gov/elections/voter-information/"
  },
  "CA": {
    "stateAbbrev": "CA",
    "stateName": "California",
    "inPersonRegPolicies": [
      {
        "kind": "InPersonRegDeadline",
        "isoDate": "2020-11-03"
      }
    ],
    "mailRegPolicies": [
      {
        "kind": "MailRegPostmarkedDeadline",
        "isoDate": "2020-10-19"
      }
    ],
    "onlineRegPolicies": [
      {
        "kind": "OnlineRegDeadline",
        "isoDate": "2020-10-19"
      }
    ],
    "registrationLinkEn": "https://registertovote.ca.gov/",
    "moreInfoLinkEn": "https://www.sos.ca.gov/elections/voting-resources/voting-california/registering-vote/"
  },
  "CO": {
    "stateAbbrev": "CO",
    "stateName": "Colorado",
    "inPersonRegPolicies": [
      {
        "kind": "InPersonRegDeadline",
        "isoDate": "2020-11-03"
      }
    ],
    "mailRegPolicies": [
      {
        "kind": "MailRegPostmarkedDeadline",
        "isoDate": "2020-10-26"
      }
    ],
    "onlineRegPolicies": [
      {
        "kind": "OnlineRegDeadline",
        "isoDate": "2020-10-26"
      }
    ],
    "registrationLinkEn": "https://www.sos.state.co.us/voter/pages/pub/home.xhtml",
    "moreInfoLinkEn": "https://www.sos.state.co.us/pubs/elections/vote/VoterHome.html"
  },
  "CT": {
    "stateAbbrev": "CT",
    "stateName": "Connecticut",
    "inPersonRegPolicies": [
      {
        "kind": "InPersonRegDeadline",
        "isoDate": "2020-11-03"
      }
    ],
    "mailRegPolicies": [
      {
        "kind": "MailRegPostmarkedDeadline",
        "isoDate": "2020-10-27"
      }
    ],
    "onlineRegPolicies": [
      {
        "kind": "OnlineRegDeadline",
        "isoDate": "2020-10-27"
      }
    ],
    "registrationLinkEn": "https://voterregistration.ct.gov/OLVR/welcome.do",
    "moreInfoLinkEn": "https://portal.ct.gov/SOTS/Election-Services/Voter-Information/Voter-Fact-Sheet"
  },
  "DE": {
    "stateAbbrev": "DE",
    "stateName": "Delaware",
    "inPersonRegPolicies": [
      {
        "kind": "InPersonRegDeadline",
        "isoDate": "2020-10-10"
      }
    ],
    "mailRegPolicies": [
      {
        "kind": "MailRegPostmarkedDeadline",
        "isoDate": "2020-10-10"
      }
    ],
    "onlineRegPolicies": [
      {
        "kind": "OnlineRegDeadline",
        "isoDate": "2020-10-10"
      }
    ],
    "registrationLinkEn": "https://ivote.de.gov/VoterView/",
    "moreInfoLinkEn": "https://elections.delaware.gov/voter/votereg.shtml"
  },
  "FL": {
    "stateAbbrev": "FL",
    "stateName": "Florida",
    "inPersonRegPolicies": [
      {
        "kind": "InPersonRegDeadline",
        "isoDate": "2020-10-05"
      }
    ],
    "mailRegPolicies": [
      {
        "kind": "MailRegPostmarkedDeadline",
        "isoDate": "2020-10-05"
      }
    ],
    "onlineRegPolicies": [
      {
        "kind": "OnlineRegDeadline",
        "isoDate": "2020-10-05"
      }
    ],
    "registrationLinkEn": "https://registertovoteflorida.gov/eligibilityreactive",
    "moreInfoLinkEn": "https://registertovoteflorida.gov/home"
  },
  "GA": {
    "stateAbbrev": "GA",
    "stateName": "Georgia",
    "inPersonRegPolicies": [
      {
        "kind": "InPersonRegDeadline",
        "isoDate": "2020-10-05"
      }
    ],
    "mailRegPolicies": [
      {
        "kind": "MailRegReceivedDeadline",
        "isoDate": "2020-10-05"
      }
    ],
    "onlineRegPolicies": [
      {
        "kind": "OnlineRegDeadline",
        "isoDate": "2020-10-05"
      }
    ],
    "registrationLinkEn": "https://registertovote.sos.ga.gov/GAOLVR/welcome.do#no-back-button",
    "moreInfoLinkEn": "https://sos.ga.gov/index.php/Elections/register_to_vote"
  },
  "HI": {
    "stateAbbrev": "HI",
    "stateName": "Hawaii",
    "inPersonRegPolicies": [
      {
        "kind": "InPersonRegDeadline",
        "isoDate": "2020-11-03"
      }
    ],
    "mailRegPolicies": [
      {
        "kind": "MailRegReceivedDeadline",
        "isoDate": "2020-10-05"
      }
    ],
    "onlineRegPolicies": [
      {
        "kind": "OnlineRegDeadline",
        "isoDate": "2020-10-05"
      }
    ],
    "registrationLinkEn": "https://olvr.hawaii.gov/",
    "moreInfoLinkEn": "https://elections.hawaii.gov/voters/registration/"
  },
  "ID": {
    "stateAbbrev": "ID",
    "stateName": "Idaho",
    "inPersonRegPolicies": [
      {
        "kind": "InPersonRegDeadline",
        "isoDate": "2020-11-03"
      }
    ],
    "mailRegPolicies": [
      {
        "kind": "MailRegReceivedDeadline",
        "isoDate": "2020-10-09"
      }
    ],
    "onlineRegPolicies": [
      {
        "kind": "OnlineRegDeadline",
        "isoDate": "2020-10-09"
      }
    ],
    "registrationLinkEn": "https://apps.idahovotes.gov/OnlineVoterRegistration",
    "moreInfoLinkEn": "https://idahovotes.gov/voting/"
  },
  "IL": {
    "stateAbbrev": "IL",
    "stateName": "Illinois",
    "inPersonRegPolicies": [
      {
        "kind": "InPersonRegDeadline",
        "isoDate": "2020-11-03"
      }
    ],
    "mailRegPolicies": [
      {
        "kind": "MailRegReceivedDeadline",
        "isoDate": "2020-10-06"
      }
    ],
    "onlineRegPolicies": [
      {
        "kind": "OnlineRegDeadline",
        "isoDate": "2020-10-18"
      }
    ],
    "registrationLinkEn": "https://ova.elections.il.gov/",
    "moreInfoLinkEn": "https://www.elections.il.gov/Default.aspx"
  },
  "IN": {
    "stateAbbrev": "IN",
    "stateName": "Indiana",
    "inPersonRegPolicies": [
      {
        "kind": "InPersonRegDeadline",
        "isoDate": "2020-10-05"
      }
    ],
    "mailRegPolicies": [
      {
        "kind": "MailRegPostmarkedDeadline",
        "isoDate": "2020-10-05"
      }
    ],
    "onlineRegPolicies": [
      {
        "kind": "OnlineRegDeadline",
        "isoDate": "2020-10-05"
      }
    ],
    "registrationLinkEn": "https://indianavoters.in.gov/",
    "moreInfoLinkEn": "https://www.in.gov/sos/elections/2403.htm"
  },
  "IA": {
    "stateAbbrev": "IA",
    "stateName": "Iowa",
    "inPersonRegPolicies": [
      {
        "kind": "InPersonRegDeadline",
        "isoDate": "2020-11-03"
      }
    ],
    "mailRegPolicies": [
      {
        "kind": "MailRegReceivedDeadline",
        "isoDate": "2020-10-24"
      }
    ],
    "onlineRegPolicies": [
      {
        "kind": "OnlineRegDeadline",
        "isoDate": "2020-10-24"
      }
    ],
    "registrationLinkEn": "https://mymvd.iowadot.gov/Account/Login?ReturnUrl=%2fVoterRegistration",
    "moreInfoLinkEn": "https://sos.iowa.gov/elections/voterinformation/voterregistration.html"
  },
  "KS": {
    "stateAbbrev": "KS",
    "stateName": "Kansas",
    "inPersonRegPolicies": [
      {
        "kind": "InPersonRegDeadline",
        "isoDate": "2020-10-13"
      }
    ],
    "mailRegPolicies": [
      {
        "kind": "MailRegPostmarkedDeadline",
        "isoDate": "2020-10-13"
      }
    ],
    "onlineRegPolicies": [
      {
        "kind": "OnlineRegDeadline",
        "isoDate": "2020-10-13"
      }
    ],
    "registrationLinkEn": "https://www.kdor.ks.gov/Apps/VoterReg/Default.aspx",
    "moreInfoLinkEn": "https://sos.ks.gov/elections/voter-information.html"
  },
  "KY": {
    "stateAbbrev": "KY",
    "stateName": "Kentucky",
    "inPersonRegPolicies": [
      {
        "kind": "InPersonRegDeadline",
        "isoDate": "2020-10-05"
      }
    ],
    "mailRegPolicies": [
      {
        "kind": "MailRegReceivedDeadline",
        "isoDate": "2020-10-05"
      }
    ],
    "onlineRegPolicies": [
      {
        "kind": "OnlineRegDeadline",
        "isoDate": "2020-10-05"
      }
    ],
    "registrationLinkEn": "https://vrsws.sos.ky.gov/ovrweb/",
    "moreInfoLinkEn": "https://elect.ky.gov/Resources/Pages/Registration.aspx"
  },
  "LA": {
    "stateAbbrev": "LA",
    "stateName": "Louisiana",
    "inPersonRegPolicies": [
      {
        "kind": "InPersonRegDeadline",
        "isoDate": "2020-10-05"
      }
    ],
    "mailRegPolicies": [
      {
        "kind": "MailRegPostmarkedDeadline",
        "isoDate": "2020-10-05"
      }
    ],
    "onlineRegPolicies": [
      {
        "kind": "OnlineRegDeadline",
        "isoDate": "2020-10-13"
      }
    ],
    "registrationLinkEn": "https://voterportal.sos.la.gov/VoterRegistration",
    "moreInfoLinkEn": "https://www.sos.la.gov/ElectionsAndVoting/RegisterToVote/Pages/default.aspx"
  },
  "ME": {
    "stateAbbrev": "ME",
    "stateName": "Maine",
    "inPersonRegPolicies": [
      {
        "kind": "InPersonRegDeadline",
        "isoDate": "2020-11-03"
      }
    ],
    "mailRegPolicies": [
      {
        "kind": "MailRegReceivedDeadline",
        "isoDate": "2020-10-13"
      }
    ],
    "onlineRegPolicies": [
      {
        "kind": "OnlineRegNotAvailable"
      }
    ],
    "registrationLinkEn": null,
    "moreInfoLinkEn": "https://www.maine.gov/sos/cec/elec/voter-info/voterguide.html"
  },
  "MD": {
    "stateAbbrev": "MD",
    "stateName": "Maryland",
    "inPersonRegPolicies": [
      {
        "kind": "InPersonRegDeadline",
        "isoDate": "2020-11-03"
      }
    ],
    "mailRegPolicies": [
      {
        "kind": "MailRegPostmarkedDeadline",
        "isoDate": "2020-10-13"
      }
    ],
    "onlineRegPolicies": [
      {
        "kind": "OnlineRegDeadline",
        "isoDate": "2020-10-13"
      }
    ],
    "registrationLinkEn": "https://voterservices.elections.maryland.gov/OnlineVoterRegistration/InstructionsStep1",
    "moreInfoLinkEn": "https://www.elections.maryland.gov/voter_registration/application.html"
  },
  "MA": {
    "stateAbbrev": "MA",
    "stateName": "Massachusetts",
    "inPersonRegPolicies": [
      {
        "kind": "InPersonRegDeadline",
        "isoDate": "2020-10-24"
      }
    ],
    "mailRegPolicies": [
      {
        "kind": "MailRegPostmarkedDeadline",
        "isoDate": "2020-10-24"
      }
    ],
    "onlineRegPolicies": [
      {
        "kind": "OnlineRegDeadline",
        "isoDate": "2020-10-24"
      }
    ],
    "registrationLinkEn": "https://www.sec.state.ma.us/ovr/",
    "moreInfoLinkEn": "https://www.sec.state.ma.us/ele/eleifv/howreg.htm"
  },
  "MI": {
    "stateAbbrev": "MI",
    "stateName": "Michigan",
    "inPersonRegPolicies": [
      {
        "kind": "InPersonRegDeadline",
        "isoDate": "2020-11-03"
      }
    ],
    "mailRegPolicies": [
      {
        "kind": "MailRegPostmarkedDeadline",
        "isoDate": "2020-10-19"
      }
    ],
    "onlineRegPolicies": [
      {
        "kind": "OnlineRegDeadline",
        "isoDate": "2020-10-19"
      }
    ],
    "registrationLinkEn": "https://mvic.sos.state.mi.us/registervoter",
    "moreInfoLinkEn": "https://mvic.sos.state.mi.us/"
  },
  "MN": {
    "stateAbbrev": "MN",
    "stateName": "Minnesota",
    "inPersonRegPolicies": [
      {
        "kind": "InPersonRegDeadline",
        "isoDate": "2020-11-03"
      }
    ],
    "mailRegPolicies": [
      {
        "kind": "MailRegReceivedDeadline",
        "isoDate": "2020-10-13"
      }
    ],
    "onlineRegPolicies": [
      {
        "kind": "OnlineRegDeadline",
        "isoDate": "2020-10-13"
      }
    ],
    "registrationLinkEn": "https://mnvotes.sos.state.mn.us/VoterRegistration/VoterRegistrationMain.aspx",
    "moreInfoLinkEn": "https://www.sos.state.mn.us/elections-voting/register-to-vote/"
  },
  "MS": {
    "stateAbbrev": "MS",
    "stateName": "Mississippi",
    "inPersonRegPolicies": [
      {
        "kind": "InPersonRegDeadline",
        "isoDate": "2020-10-05"
      }
    ],
    "mailRegPolicies": [
      {
        "kind": "MailRegPostmarkedDeadline",
        "isoDate": "2020-10-05"
      }
    ],
    "onlineRegPolicies": [
      {
        "kind": "OnlineRegNotAvailable"
      }
    ],
    "registrationLinkEn": null,
    "moreInfoLinkEn": "https://www.sos.ms.gov/Vote/Pages/default.aspx"
  },
  "MO": {
    "stateAbbrev": "MO",
    "stateName": "Missouri",
    "inPersonRegPolicies": [
      {
        "kind": "InPersonRegDeadline",
        "isoDate": "2020-10-07"
      }
    ],
    "mailRegPolicies": [
      {
        "kind": "MailRegPostmarkedDeadline",
        "isoDate": "2020-10-07"
      }
    ],
    "onlineRegPolicies": [
      {
        "kind": "OnlineRegDeadline",
        "isoDate": "2020-10-07"
      }
    ],
    "registrationLinkEn": "https://s1.sos.mo.gov/elections/voterregistration/",
    "moreInfoLinkEn": "https://www.sos.mo.gov/elections/goVoteMissouri/register"
  },
  "MT": {
    "stateAbbrev": "MT",
    "stateName": "Montana",
    "inPersonRegPolicies": [
      {
        "kind": "InPersonRegDeadline",
        "isoDate": "2020-11-03"
      }
    ],
    "mailRegPolicies": [
      {
        "kind": "MailRegPostmarkedDeadline",
        "isoDate": "2020-10-26"
      }
    ],
    "onlineRegPolicies": [
      {
        "kind": "OnlineRegNotAvailable"
      }
    ],
    "registrationLinkEn": null,
    "moreInfoLinkEn": "https://sosmt.gov/elections/vote/"
  },
  "NE": {
    "stateAbbrev": "NE",
    "stateName": "Nebraska",
    "inPersonRegPolicies": [
      {
        "kind": "InPersonRegDeadline",
        "isoDate": "2020-10-23"
      }
    ],
    "mailRegPolicies": [
      {
        "kind": "MailRegPostmarkedDeadline",
        "isoDate": "2020-10-16"
      }
    ],
    "onlineRegPolicies": [
      {
        "kind": "OnlineRegDeadline",
        "isoDate": "2020-10-16"
      }
    ],
    "registrationLinkEn": "https://www.nebraska.gov/apps-sos-voter-registration/",
    "moreInfoLinkEn": "https://sos.nebraska.gov/elections/voter-forms"
  },
  "NV": {
    "stateAbbrev": "NV",
    "stateName": "Nevada",
    "inPersonRegPolicies": [
      {
        "kind": "InPersonRegDeadline",
        "isoDate": "2020-10-06"
      }
    ],
    "mailRegPolicies": [
      {
        "kind": "MailRegPostmarkedDeadline",
        "isoDate": "2020-10-06"
      }
    ],
    "onlineRegPolicies": [
      {
        "kind": "OnlineRegDeadline",
        "isoDate": "2020-10-29"
      }
    ],
    "registrationLinkEn": "https://www.nvsos.gov/SOSVoterServices/start.aspx",
    "moreInfoLinkEn": "https://www.nvsos.gov/sos/elections/voters/registering-to-vote"
  },
  "NH": {
    "stateAbbrev": "NH",
    "stateName": "New Hampshire",
    "inPersonRegPolicies": [
      {
        "kind": "InPersonRegDeadline",
        "isoDate": "2020-11-03"
      }
    ],
    "mailRegPolicies": [
      {
        "kind": "MailRegNotAvailable"
      }
    ],
    "onlineRegPolicies": [
      {
        "kind": "OnlineRegNotAvailable"
      }
    ],
    "registrationLinkEn": null,
    "moreInfoLinkEn": "https://sos.nh.gov/elections/voters/register-to-vote/"
  },
  "NJ": {
    "stateAbbrev": "NJ",
    "stateName": "New Jersey",
    "inPersonRegPolicies": [
      {
        "kind": "InPersonRegDeadline",
        "isoDate": "2020-10-13"
      }
    ],
    "mailRegPolicies": [
      {
        "kind": "MailRegReceivedDeadline",
        "isoDate": "2020-10-13"
      }
    ],
    "onlineRegPolicies": [
      {
        "kind": "OnlineRegDeadline",
        "isoDate": "2020-10-13"
      }
    ],
    "registrationLinkEn": "https://voter.svrs.nj.gov/register",
    "moreInfoLinkEn": "https://nj.gov/state/elections/voter-registration.shtml"
  },
  "NM": {
    "stateAbbrev": "NM",
    "stateName": "New Mexico",
    "inPersonRegPolicies": [
      {
        "kind": "InPersonRegDeadline",
        "isoDate": "2020-10-31"
      }
    ],
    "mailRegPolicies": [
      {
        "kind": "MailRegPostmarkedDeadline",
        "isoDate": "2020-10-06"
      }
    ],
    "onlineRegPolicies": [
      {
        "kind": "OnlineRegDeadline",
        "isoDate": "2020-10-06"
      }
    ],
    "registrationLinkEn": "https://portal.sos.state.nm.us/OVR/WebPages/InstructionsStep1.aspx",
    "moreInfoLinkEn": "https://www.sos.state.nm.us/voting-and-elections/voter-information/voter-registration-information/"
  },
  "NY": {
    "stateAbbrev": "NY",
    "stateName": "New York",
    "inPersonRegPolicies": [
      {
        "kind": "InPersonRegDeadline",
        "isoDate": "2020-10-09"
      }
    ],
    "mailRegPolicies": [
      {
        "kind": "MailRegPostmarkedDeadline",
        "isoDate": "2020-10-09"
      }
    ],
    "onlineRegPolicies": [
      {
        "kind": "OnlineRegDeadline",
        "isoDate": "2020-10-09"
      }
    ],
    "registrationLinkEn": "https://dmv.ny.gov/more-info/electronic-voter-registration-application",
    "moreInfoLinkEn": "https://www.elections.ny.gov/votingregister.html"
  },
  "NC": {
    "stateAbbrev": "NC",
    "stateName": "North Carolina",
    "inPersonRegPolicies": [
      {
        "kind": "InPersonRegDeadline",
        "isoDate": "2020-10-31"
      }
    ],
    "mailRegPolicies": [
      {
        "kind": "MailRegPostmarkedDeadline",
        "isoDate": "2020-10-09"
      }
    ],
    "onlineRegPolicies": [
      {
        "kind": "OnlineRegDeadline",
        "isoDate": "2020-10-09"
      }
    ],
    "registrationLinkEn": "https://www.ncdot.gov/dmv/offices-services/online/Pages/voter-registration-application.aspx",
    "moreInfoLinkEn": "https://www.ncsbe.gov/registering/how-register"
  },
  "ND": {
    "stateAbbrev": "ND",
    "stateName": "North Dakota",
    "inPersonRegPolicies": [
      {
        "kind": "RegNotNeeded",
        "isoDate": "2020-11-03"
      }
    ],
    "mailRegPolicies": [
      {
        "kind": "RegNotNeeded",
        "isoDate": "2020-11-03"
      }
    ],
    "onlineRegPolicies": [
      {
        "kind": "RegNotNeeded",
        "isoDate": "2020-11-03"
      }
    ],
    "registrationLinkEn": null,
    "moreInfoLinkEn": "https://vip.sos.nd.gov/PortalList.aspx"
  },
  "OH": {
    "stateAbbrev": "OH",
    "stateName": "Ohio",
    "inPersonRegPolicies": [
      {
        "kind": "InPersonRegDeadline",
        "isoDate": "2020-10-05"
      }
    ],
    "mailRegPolicies": [
      {
        "kind": "MailRegPostmarkedDeadline",
        "isoDate": "2020-10-05"
      }
    ],
    "onlineRegPolicies": [
      {
        "kind": "OnlineRegDeadline",
        "isoDate": "2020-10-05"
      }
    ],
    "registrationLinkEn": "https://olvr.ohiosos.gov/",
    "moreInfoLinkEn": "https://ohio.gov/wps/portal/gov/site/government/resources/register-to-vote-or-update-your-registration"
  },
  "OK": {
    "stateAbbrev": "OK",
    "stateName": "Oklahoma",
    "inPersonRegPolicies": [
      {
        "kind": "InPersonRegDeadline",
        "isoDate": "2020-10-09"
      }
    ],
    "mailRegPolicies": [
      {
        "kind": "MailRegPostmarkedDeadline",
        "isoDate": "2020-10-09"
      }
    ],
    "onlineRegPolicies": [
      {
        "kind": "OnlineRegNotAvailable"
      }
    ],
    "registrationLinkEn": null,
    "moreInfoLinkEn": "https://www.ok.gov/elections/Voter_Info/Register_to_Vote/index.html"
  },
  "OR": {
    "stateAbbrev": "OR",
    "stateName": "Oregon",
    "inPersonRegPolicies": [
      {
        "kind": "InPersonRegDeadline",
        "isoDate": "2020-10-13"
      }
    ],
    "mailRegPolicies": [
      {
        "kind": "MailRegPostmarkedDeadline",
        "isoDate": "2020-10-13"
      }
    ],
    "onlineRegPolicies": [
      {
        "kind": "OnlineRegDeadline",
        "isoDate": "2020-10-13"
      }
    ],
    "registrationLinkEn": "https://secure.sos.state.or.us/orestar/vr/register.do",
    "moreInfoLinkEn": "https://sos.oregon.gov/voting/Pages/registration.aspx"
  },
  "PA": {
    "stateAbbrev": "PA",
    "stateName": "Pennsylvania",
    "inPersonRegPolicies": [
      {
        "kind": "InPersonRegDeadline",
        "isoDate": "2020-10-19"
      }
    ],
    "mailRegPolicies": [
      {
        "kind": "MailRegReceivedDeadline",
        "isoDate": "2020-10-19"
      }
    ],
    "onlineRegPolicies": [
      {
        "kind": "OnlineRegDeadline",
        "isoDate": "2020-10-19"
      }
    ],
    "registrationLinkEn": "https://www.pavoterservices.pa.gov/Pages/VoterRegistrationApplication.aspx",
    "moreInfoLinkEn": "https://www.pa.gov/guides/voting-and-elections/#RegisteringtoVote"
  },
  "RI": {
    "stateAbbrev": "RI",
    "stateName": "Rhode Island",
    "inPersonRegPolicies": [
      {
        "kind": "InPersonRegDeadline",
        "isoDate": "2020-10-04"
      }
    ],
    "mailRegPolicies": [
      {
        "kind": "MailRegPostmarkedDeadline",
        "isoDate": "2020-10-04"
      }
    ],
    "onlineRegPolicies": [
      {
        "kind": "OnlineRegDeadline",
        "isoDate": "2020-10-04"
      }
    ],
    "registrationLinkEn": "https://vote.sos.ri.gov/Home/RegistertoVote",
    "moreInfoLinkEn": "https://vote.sos.ri.gov/Voter/RegisterToVote"
  },
  "SC": {
    "stateAbbrev": "SC",
    "stateName": "South Carolina",
    "inPersonRegPolicies": [
      {
        "kind": "InPersonRegDeadline",
        "isoDate": "2020-10-02"
      }
    ],
    "mailRegPolicies": [
      {
        "kind": "MailRegPostmarkedDeadline",
        "isoDate": "2020-10-05"
      }
    ],
    "onlineRegPolicies": [
      {
        "kind": "OnlineRegDeadline",
        "isoDate": "2020-10-04"
      }
    ],
    "registrationLinkEn": "https://info.scvotes.sc.gov/eng/ovr/start.aspx",
    "moreInfoLinkEn": "https://www.scvotes.gov/south-carolina-voter-registration-information"
  },
  "SD": {
    "stateAbbrev": "SD",
    "stateName": "South Dakota",
    "inPersonRegPolicies": [
      {
        "kind": "InPersonRegDeadline",
        "isoDate": "2020-10-19"
      }
    ],
    "mailRegPolicies": [
      {
        "kind": "MailRegReceivedDeadline",
        "isoDate": "2020-10-19"
      }
    ],
    "onlineRegPolicies": [
      {
        "kind": "OnlineRegNotAvailable"
      }
    ],
    "registrationLinkEn": null,
    "moreInfoLinkEn": "https://sdsos.gov/elections-voting/voting/register-to-vote/default.aspx"
  },
  "TN": {
    "stateAbbrev": "TN",
    "stateName": "Tennessee",
    "inPersonRegPolicies": [
      {
        "kind": "InPersonRegDeadline",
        "isoDate": "2020-10-05"
      }
    ],
    "mailRegPolicies": [
      {
        "kind": "MailRegPostmarkedDeadline",
        "isoDate": "2020-10-05"
      }
    ],
    "onlineRegPolicies": [
      {
        "kind": "OnlineRegDeadline",
        "isoDate": "2020-10-05"
      }
    ],
    "registrationLinkEn": "https://ovr.govote.tn.gov/",
    "moreInfoLinkEn": "https://sos.tn.gov/products/elections/register-vote"
  },
  "TX": {
    "stateAbbrev": "TX",
    "stateName": "Texas",
    "inPersonRegPolicies": [
      {
        "kind": "InPersonRegDeadline",
        "isoDate": "2020-10-05"
      }
    ],
    "mailRegPolicies": [
      {
        "kind": "MailRegPostmarkedDeadline",
        "isoDate": "2020-10-05"
      }
    ],
    "onlineRegPolicies": [
      {
        "kind": "OnlineRegNotAvailable"
      }
    ],
    "registrationLinkEn": null,
    "moreInfoLinkEn": "https://www.votetexas.gov/register-to-vote/index.html"
  },
  "UT": {
    "stateAbbrev": "UT",
    "stateName": "Utah",
    "inPersonRegPolicies": [
      {
        "kind": "InPersonRegDeadline",
        "isoDate": "2020-11-03"
      }
    ],
    "mailRegPolicies": [
      {
        "kind": "MailRegReceivedDeadline",
        "isoDate": "2020-10-23"
      }
    ],
    "onlineRegPolicies": [
      {
        "kind": "OnlineRegDeadline",
        "isoDate": "2020-10-23"
      }
    ],
    "registrationLinkEn": "https://secure.utah.gov/voterreg/index.html",
    "moreInfoLinkEn": "https://voteinfo.utah.gov/"
  },
  "VT": {
    "stateAbbrev": "VT",
    "stateName": "Vermont",
    "inPersonRegPolicies": [
      {
        "kind": "InPersonRegDeadline",
        "isoDate": "2020-11-03"
      }
    ],
    "mailRegPolicies": [
      {
        "kind": "MailRegReceivedDeadline",
        "isoDate": "2020-10-30"
      }
    ],
    "onlineRegPolicies": [
      {
        "kind": "OnlineRegDeadline",
        "isoDate": "2020-10-30"
      }
    ],
    "registrationLinkEn": "https://olvr.vermont.gov/",
    "moreInfoLinkEn": "https://sos.vermont.gov/elections/voters/registration/"
  },
  "VA": {
    "stateAbbrev": "VA",
    "stateName": "Virginia",
    "inPersonRegPolicies": [
      {
        "kind": "InPersonRegDeadline",
        "isoDate": "2020-10-13"
      }
    ],
    "mailRegPolicies": [
      {
        "kind": "MailRegPostmarkedDeadline",
        "isoDate": "2020-10-13"
      }
    ],
    "onlineRegPolicies": [
      {
        "kind": "OnlineRegDeadline",
        "isoDate": "2020-10-13"
      }
    ],
    "registrationLinkEn": "https://www.elections.virginia.gov/citizen-portal/",
    "moreInfoLinkEn": "https://www.elections.virginia.gov/registration/how-to-register/"
  },
  "WA": {
    "stateAbbrev": "WA",
    "stateName": "Washington",
    "inPersonRegPolicies": [
      {
        "kind": "InPersonRegDeadline",
        "isoDate": "2020-11-03"
      }
    ],
    "mailRegPolicies": [
      {
        "kind": "MailRegReceivedDeadline",
        "isoDate": "2020-10-26"
      }
    ],
    "onlineRegPolicies": [
      {
        "kind": "OnlineRegDeadline",
        "isoDate": "2020-10-26"
      }
    ],
    "registrationLinkEn": "https://voter.votewa.gov/WhereToVote.aspx",
    "moreInfoLinkEn": "https://www.sos.wa.gov/elections/voters/"
  },
  "WV": {
    "stateAbbrev": "WV",
    "stateName": "West Virginia",
    "inPersonRegPolicies": [
      {
        "kind": "InPersonRegDeadline",
        "isoDate": "2020-10-13"
      }
    ],
    "mailRegPolicies": [
      {
        "kind": "MailRegPostmarkedDeadline",
        "isoDate": "2020-10-13"
      }
    ],
    "onlineRegPolicies": [
      {
        "kind": "OnlineRegDeadline",
        "isoDate": "2020-10-13"
      }
    ],
    "registrationLinkEn": "https://ovr.sos.wv.gov/Register/Landing",
    "moreInfoLinkEn": "https://ovr.sos.wv.gov/Register/Landing"
  },
  "WI": {
    "stateAbbrev": "WI",
    "stateName": "Wisconsin",
    "inPersonRegPolicies": [
      {
        "kind": "InPersonRegDeadline",
        "isoDate": "2020-11-03"
      }
    ],
    "mailRegPolicies": [
      {
        "kind": "MailRegPostmarkedDeadline",
        "isoDate": "2020-10-14"
      }
    ],
    "onlineRegPolicies": [
      {
        "kind": "OnlineRegDeadline",
        "isoDate": "2020-10-14"
      }
    ],
    "registrationLinkEn": "https://myvote.wi.gov/en-us/RegisterToVote",
    "moreInfoLinkEn": "https://elections.wi.gov/voters/first-time"
  },
  "WY": {
    "stateAbbrev": "WY",
    "stateName": "Wyoming",
    "inPersonRegPolicies": [
      {
        "kind": "InPersonRegDeadline",
        "isoDate": "2020-11-03"
      }
    ],
    "mailRegPolicies": [
      {
        "kind": "MailRegReceivedDeadline",
        "isoDate": "2020-10-19"
      }
    ],
    "onlineRegPolicies": [
      {
        "kind": "OnlineRegNotAvailable"
      }
    ],
    "registrationLinkEn": null,
    "moreInfoLinkEn": "https://sos.wyo.gov/Elections/State/RegisteringToVote.aspx"
  },
  "DC": {
    "stateAbbrev": "DC",
    "stateName": "District of Columbia",
    "inPersonRegPolicies": [
      {
        "kind": "InPersonRegDeadline",
        "isoDate": "2020-11-03"
      }
    ],
    "mailRegPolicies": [
      {
        "kind": "MailRegReceivedDeadline",
        "isoDate": "2020-10-13"
      }
    ],
    "onlineRegPolicies": [],
    "registrationLinkEn": "https://forms.dc.gov/f/DC_Voter_Registration_Form",
    "moreInfoLinkEn": "https://www.vote4dc.com/ApplyInstructions/Register"
  }
}